{
    "links": {
      "self": "/rise/api/parameter?itemsPerPage=25&page=1",
      "first": "/rise/api/parameter?itemsPerPage=25&page=1",
      "last": "/rise/api/parameter?itemsPerPage=25&page=28",
      "next": "/rise/api/parameter?itemsPerPage=25&page=2"
    },
    "meta": {
      "totalItems": 698,
      "itemsPerPage": 25,
      "currentPage": 1
    },
    "data": [
      {
        "id": "/rise/api/parameter/1721",
        "type": "Parameter",
        "attributes": {
          "_id": 1721,
          "parameterGroupId": 25,
          "parameterName": "Test Parameter with Associations",
          "parameterCode": null,
          "parameterDescription": "Test Parameter with Associations",
          "parameterTimestep": "periodic",
          "parameterTransformation": "average",
          "parameterUnit": "count/L",
          "createDate": "2024-01-26T17:08:46+00:00",
          "updateDate": "2024-03-05T09:36:15+00:00",
          "parameterGroup": "Bedload"
        },
        "relationships": {
          "parameterGroupEntity": {
            "data": {
              "type": "ParameterGroup",
              "id": "/rise/api/parameter-group/25"
            }
          }
        }
      },
      {
        "id": "/rise/api/parameter/1688",
        "type": "Parameter",
        "attributes": {
          "_id": 1688,
          "parameterGroupId": 31,
          "parameterName": "Chinook Wild Count",
          "parameterCode": null,
          "parameterDescription": "Count of total number \"Wild\" or Non-Adipose-Clipped Chinook Salmon (Oncorhynchus tshawytscha)",
          "parameterTimestep": "every two hours",
          "parameterTransformation": "sum",
          "parameterUnit": "count",
          "createDate": "2022-11-29T23:15:26+00:00",
          "updateDate": "2022-12-13T15:23:41+00:00",
          "parameterGroup": "Macrobiological Characteristics"
        },
        "relationships": {
          "parameterGroupEntity": {
            "data": {
              "type": "ParameterGroup",
              "id": "/rise/api/parameter-group/31"
            }
          }
        }
      },
      {
        "id": "/rise/api/parameter/1687",
        "type": "Parameter",
        "attributes": {
          "_id": 1687,
          "parameterGroupId": 31,
          "parameterName": "Chinook Hatchery Count",
          "parameterCode": null,
          "parameterDescription": "Count of total number Hatchery or Adipose-Clipped Chinook Salmon (Oncorhynchus tshawytscha)",
          "parameterTimestep": "every two hours",
          "parameterTransformation": "sum",
          "parameterUnit": "count",
          "createDate": "2022-11-29T23:14:16+00:00",
          "updateDate": "2022-12-13T15:23:45+00:00",
          "parameterGroup": "Macrobiological Characteristics"
        },
        "relationships": {
          "parameterGroupEntity": {
            "data": {
              "type": "ParameterGroup",
              "id": "/rise/api/parameter-group/31"
            }
          }
        }
      },
      {
        "id": "/rise/api/parameter/1686",
        "type": "Parameter",
        "attributes": {
          "_id": 1686,
          "parameterGroupId": 16,
          "parameterName": "Reservoir Average Evaporation",
          "parameterCode": null,
          "parameterDescription": "Evaporation summed to daily totals and then averaged across reservoir surface to produce a daily reservoir-average total",
          "parameterTimestep": "daily",
          "parameterTransformation": "sum",
          "parameterUnit": "mm",
          "createDate": "2022-10-24T15:46:19+00:00",
          "updateDate": "2022-11-30T20:46:44+00:00",
          "parameterGroup": "Lake/Reservoir Evaporation"
        },
        "relationships": {
          "parameterGroupEntity": {
            "data": {
              "type": "ParameterGroup",
              "id": "/rise/api/parameter-group/16"
            }
          }
        }
      },
      {
        "id": "/rise/api/parameter/1656",
        "type": "Parameter",
        "attributes": {
          "_id": 1656,
          "parameterGroupId": 25,
          "parameterName": "Bedload Flux greater than or equal to 16mm",
          "parameterCode": null,
          "parameterDescription": "Coarse bed load surrogate measurements for particles greater than or equal to 16mm. Data are averaged hourly across the cross section.",
          "parameterTimestep": "hourly",
          "parameterTransformation": "average",
          "parameterUnit": "kg",
          "createDate": "2021-09-27T10:18:50+00:00",
          "updateDate": "2021-09-27T11:52:50+00:00",
          "parameterGroup": "Bedload"
        },
        "relationships": {
          "parameterGroupEntity": {
            "data": {
              "type": "ParameterGroup",
              "id": "/rise/api/parameter-group/25"
            }
          }
        }
      },
      {
        "id": "/rise/api/parameter/1655",
        "type": "Parameter",
        "attributes": {
          "_id": 1655,
          "parameterGroupId": 3,
          "parameterName": "Precipitation",
          "parameterCode": null,
          "parameterDescription": "Hourly precipitation in mm",
          "parameterTimestep": "hourly",
          "parameterTransformation": "sum",
          "parameterUnit": "mm",
          "createDate": "2021-09-03T16:41:10+00:00",
          "updateDate": "2022-03-18T21:18:33+00:00",
          "parameterGroup": "Weather Data"
        },
        "relationships": {
          "parameterGroupEntity": {
            "data": {
              "type": "ParameterGroup",
              "id": "/rise/api/parameter-group/3"
            }
          }
        }
      },
      {
        "id": "/rise/api/parameter/1654",
        "type": "Parameter",
        "attributes": {
          "_id": 1654,
          "parameterGroupId": 3,
          "parameterName": "Net Radiation",
          "parameterCode": null,
          "parameterDescription": "Average hourly net radiation (short wave minus long wave) in W/m2",
          "parameterTimestep": "hourly",
          "parameterTransformation": "average",
          "parameterUnit": "W/m2",
          "createDate": "2021-09-03T16:36:18+00:00",
          "updateDate": "2021-10-15T15:13:45+00:00",
          "parameterGroup": "Weather Data"
        },
        "relationships": {
          "parameterGroupEntity": {
            "data": {
              "type": "ParameterGroup",
              "id": "/rise/api/parameter-group/3"
            }
          }
        }
      },
      {
        "id": "/rise/api/parameter/1653",
        "type": "Parameter",
        "attributes": {
          "_id": 1653,
          "parameterGroupId": 3,
          "parameterName": "Solar Radiation",
          "parameterCode": null,
          "parameterDescription": "Average hourly solar radiation in W/m2",
          "parameterTimestep": "hourly",
          "parameterTransformation": "average",
          "parameterUnit": "W/m2",
          "createDate": "2021-09-03T16:35:08+00:00",
          "updateDate": "2021-10-15T15:13:54+00:00",
          "parameterGroup": "Weather Data"
        },
        "relationships": {
          "parameterGroupEntity": {
            "data": {
              "type": "ParameterGroup",
              "id": "/rise/api/parameter-group/3"
            }
          }
        }
      },
      {
        "id": "/rise/api/parameter/1652",
        "type": "Parameter",
        "attributes": {
          "_id": 1652,
          "parameterGroupId": 12,
          "parameterName": "Water Temperature",
          "parameterCode": null,
          "parameterDescription": "Hourly average water temperature in degrees C.",
          "parameterTimestep": "hourly",
          "parameterTransformation": "average",
          "parameterUnit": "DegC",
          "createDate": "2021-09-02T21:50:20+00:00",
          "updateDate": "2021-10-15T15:14:03+00:00",
          "parameterGroup": "Water Temperature"
        },
        "relationships": {
          "parameterGroupEntity": {
            "data": {
              "type": "ParameterGroup",
              "id": "/rise/api/parameter-group/12"
            }
          }
        }
      },
      {
        "id": "/rise/api/parameter/1651",
        "type": "Parameter",
        "attributes": {
          "_id": 1651,
          "parameterGroupId": 3,
          "parameterName": "Barometric Pressure",
          "parameterCode": null,
          "parameterDescription": "Average hourly barometric pressure in mm Hg.",
          "parameterTimestep": "hourly",
          "parameterTransformation": "average",
          "parameterUnit": "mm Hg",
          "createDate": "2021-09-02T21:48:51+00:00",
          "updateDate": "2021-10-15T15:14:08+00:00",
          "parameterGroup": "Weather Data"
        },
        "relationships": {
          "parameterGroupEntity": {
            "data": {
              "type": "ParameterGroup",
              "id": "/rise/api/parameter-group/3"
            }
          }
        }
      },
      {
        "id": "/rise/api/parameter/1650",
        "type": "Parameter",
        "attributes": {
          "_id": 1650,
          "parameterGroupId": 3,
          "parameterName": "Relative Humidity",
          "parameterCode": null,
          "parameterDescription": "Average hourly amount of water vapor in the air as a percent.",
          "parameterTimestep": "hourly",
          "parameterTransformation": "average",
          "parameterUnit": "%",
          "createDate": "2021-09-02T21:47:24+00:00",
          "updateDate": "2021-10-15T15:14:15+00:00",
          "parameterGroup": "Weather Data"
        },
        "relationships": {
          "parameterGroupEntity": {
            "data": {
              "type": "ParameterGroup",
              "id": "/rise/api/parameter-group/3"
            }
          }
        }
      },
      {
        "id": "/rise/api/parameter/1649",
        "type": "Parameter",
        "attributes": {
          "_id": 1649,
          "parameterGroupId": 3,
          "parameterName": "Air Temperature",
          "parameterCode": null,
          "parameterDescription": "Average hourly air temperature in degrees C.",
          "parameterTimestep": "hourly",
          "parameterTransformation": "average",
          "parameterUnit": "DegC",
          "createDate": "2021-09-02T21:45:09+00:00",
          "updateDate": "2021-10-15T15:14:20+00:00",
          "parameterGroup": "Weather Data"
        },
        "relationships": {
          "parameterGroupEntity": {
            "data": {
              "type": "ParameterGroup",
              "id": "/rise/api/parameter-group/3"
            }
          }
        }
      },
      {
        "id": "/rise/api/parameter/1648",
        "type": "Parameter",
        "attributes": {
          "_id": 1648,
          "parameterGroupId": 3,
          "parameterName": "Vapor Pressure Deficit",
          "parameterCode": null,
          "parameterDescription": "Average hourly vapor pressure deficit (the difference between the water vapor pressure when the air is at saturation and the actual water vapor pressure at a specific temperature) in kPA.",
          "parameterTimestep": "hourly",
          "parameterTransformation": "calculation",
          "parameterUnit": "kPA",
          "createDate": "2021-09-02T21:42:45+00:00",
          "updateDate": "2021-10-15T15:14:26+00:00",
          "parameterGroup": "Weather Data"
        },
        "relationships": {
          "parameterGroupEntity": {
            "data": {
              "type": "ParameterGroup",
              "id": "/rise/api/parameter-group/3"
            }
          }
        }
      },
      {
        "id": "/rise/api/parameter/1647",
        "type": "Parameter",
        "attributes": {
          "_id": 1647,
          "parameterGroupId": 16,
          "parameterName": "Pan Evaporation",
          "parameterCode": null,
          "parameterDescription": "Hourly change in an evaporation pan's water level in mm.",
          "parameterTimestep": "hourly",
          "parameterTransformation": "sum",
          "parameterUnit": "mm",
          "createDate": "2021-09-02T21:36:42+00:00",
          "updateDate": "2021-10-15T15:14:31+00:00",
          "parameterGroup": "Lake/Reservoir Evaporation"
        },
        "relationships": {
          "parameterGroupEntity": {
            "data": {
              "type": "ParameterGroup",
              "id": "/rise/api/parameter-group/16"
            }
          }
        }
      },
      {
        "id": "/rise/api/parameter/1646",
        "type": "Parameter",
        "attributes": {
          "_id": 1646,
          "parameterGroupId": 3,
          "parameterName": "Wind Direction",
          "parameterCode": null,
          "parameterDescription": "Average hourly wind direction (the direction from which the wind is blowing) in degrees, measured clockwise from north on an azimuth circle. An azimuth circle consists of 360 degrees. Ninety degrees corresponds to east, 180 degrees corresponds to south, 270 degrees corresponds to west, and both 360 degrees and 0 degrees correspond to north.",
          "parameterTimestep": "hourly",
          "parameterTransformation": "average",
          "parameterUnit": "degrees",
          "createDate": "2021-09-02T21:03:46+00:00",
          "updateDate": "2023-12-07T16:11:23+00:00",
          "parameterGroup": "Weather Data"
        },
        "relationships": {
          "parameterGroupEntity": {
            "data": {
              "type": "ParameterGroup",
              "id": "/rise/api/parameter-group/3"
            }
          }
        }
      },
      {
        "id": "/rise/api/parameter/1645",
        "type": "Parameter",
        "attributes": {
          "_id": 1645,
          "parameterGroupId": 3,
          "parameterName": "Wind Speed",
          "parameterCode": null,
          "parameterDescription": "Average hourly wind speed in m/s",
          "parameterTimestep": "hourly",
          "parameterTransformation": "average",
          "parameterUnit": "m/s",
          "createDate": "2021-09-02T21:01:37+00:00",
          "updateDate": "2021-10-15T15:14:42+00:00",
          "parameterGroup": "Weather Data"
        },
        "relationships": {
          "parameterGroupEntity": {
            "data": {
              "type": "ParameterGroup",
              "id": "/rise/api/parameter-group/3"
            }
          }
        }
      },
      {
        "id": "/rise/api/parameter/1644",
        "type": "Parameter",
        "attributes": {
          "_id": 1644,
          "parameterGroupId": 18,
          "parameterName": "Sodium",
          "parameterCode": null,
          "parameterDescription": "Average daily sodium in mg/L.",
          "parameterTimestep": "daily",
          "parameterTransformation": "average",
          "parameterUnit": "mg/L",
          "createDate": "2021-09-02T14:39:02+00:00",
          "updateDate": "2021-10-08T21:29:27+00:00",
          "parameterGroup": "Inorganic Analytes"
        },
        "relationships": {
          "parameterGroupEntity": {
            "data": {
              "type": "ParameterGroup",
              "id": "/rise/api/parameter-group/18"
            }
          }
        }
      },
      {
        "id": "/rise/api/parameter/1643",
        "type": "Parameter",
        "attributes": {
          "_id": 1643,
          "parameterGroupId": 31,
          "parameterName": "Silversides Unknown Count",
          "parameterCode": "262",
          "parameterDescription": "Count of total number of Silversides Unknown (NA NA) observed in a two hour period ",
          "parameterTimestep": "every two hours",
          "parameterTransformation": "sum",
          "parameterUnit": "count",
          "createDate": "2021-08-26T21:51:43+00:00",
          "updateDate": "2021-11-30T16:25:24+00:00",
          "parameterGroup": "Macrobiological Characteristics"
        },
        "relationships": {
          "parameterGroupEntity": {
            "data": {
              "type": "ParameterGroup",
              "id": "/rise/api/parameter-group/31"
            }
          }
        }
      },
      {
        "id": "/rise/api/parameter/1642",
        "type": "Parameter",
        "attributes": {
          "_id": 1642,
          "parameterGroupId": 31,
          "parameterName": "Tidewater Goby Count",
          "parameterCode": "261",
          "parameterDescription": "Count of total number of Tidewater Goby (Eucyclogobius newberryi) observed in a two hour period ",
          "parameterTimestep": "every two hours",
          "parameterTransformation": "sum",
          "parameterUnit": "count",
          "createDate": "2021-08-26T21:50:57+00:00",
          "updateDate": "2021-11-30T15:56:58+00:00",
          "parameterGroup": "Macrobiological Characteristics"
        },
        "relationships": {
          "parameterGroupEntity": {
            "data": {
              "type": "ParameterGroup",
              "id": "/rise/api/parameter-group/31"
            }
          }
        }
      },
      {
        "id": "/rise/api/parameter/1641",
        "type": "Parameter",
        "attributes": {
          "_id": 1641,
          "parameterGroupId": 31,
          "parameterName": "Catfish Unknown Count",
          "parameterCode": "260",
          "parameterDescription": "Count of total number of Catfish Unknown observed in a two hour period  ",
          "parameterTimestep": "every two hours",
          "parameterTransformation": "sum",
          "parameterUnit": "count",
          "createDate": "2021-08-26T21:50:17+00:00",
          "updateDate": "2021-11-30T15:57:01+00:00",
          "parameterGroup": "Macrobiological Characteristics"
        },
        "relationships": {
          "parameterGroupEntity": {
            "data": {
              "type": "ParameterGroup",
              "id": "/rise/api/parameter-group/31"
            }
          }
        }
      },
      {
        "id": "/rise/api/parameter/1640",
        "type": "Parameter",
        "attributes": {
          "_id": 1640,
          "parameterGroupId": 31,
          "parameterName": "Herring Unknown Count",
          "parameterCode": "259",
          "parameterDescription": "Count of total number of Herring Unknown observed in a two hour period  ",
          "parameterTimestep": "every two hours",
          "parameterTransformation": "sum",
          "parameterUnit": "count",
          "createDate": "2021-08-26T21:49:33+00:00",
          "updateDate": "2021-11-30T15:57:13+00:00",
          "parameterGroup": "Macrobiological Characteristics"
        },
        "relationships": {
          "parameterGroupEntity": {
            "data": {
              "type": "ParameterGroup",
              "id": "/rise/api/parameter-group/31"
            }
          }
        }
      },
      {
        "id": "/rise/api/parameter/1639",
        "type": "Parameter",
        "attributes": {
          "_id": 1639,
          "parameterGroupId": 31,
          "parameterName": "Kokanee Salmon Count",
          "parameterCode": "258",
          "parameterDescription": "Count of total number of Kokanee Salmon (Oncorhynchus nerka) observed in a two hour period  ",
          "parameterTimestep": "every two hours",
          "parameterTransformation": "sum",
          "parameterUnit": "count",
          "createDate": "2021-08-26T21:48:45+00:00",
          "updateDate": "2021-11-30T15:57:07+00:00",
          "parameterGroup": "Macrobiological Characteristics"
        },
        "relationships": {
          "parameterGroupEntity": {
            "data": {
              "type": "ParameterGroup",
              "id": "/rise/api/parameter-group/31"
            }
          }
        }
      },
      {
        "id": "/rise/api/parameter/1638",
        "type": "Parameter",
        "attributes": {
          "_id": 1638,
          "parameterGroupId": 31,
          "parameterName": "Cheekspot Goby Count",
          "parameterCode": "257",
          "parameterDescription": "Count of total number of Cheekspot Goby (Llypnus gilberti) observed in a two hour period  ",
          "parameterTimestep": "every two hours",
          "parameterTransformation": "sum",
          "parameterUnit": "count",
          "createDate": "2021-08-26T21:48:00+00:00",
          "updateDate": "2021-11-30T15:57:20+00:00",
          "parameterGroup": "Macrobiological Characteristics"
        },
        "relationships": {
          "parameterGroupEntity": {
            "data": {
              "type": "ParameterGroup",
              "id": "/rise/api/parameter-group/31"
            }
          }
        }
      },
      {
        "id": "/rise/api/parameter/1637",
        "type": "Parameter",
        "attributes": {
          "_id": 1637,
          "parameterGroupId": 31,
          "parameterName": "Redeye Bass Count",
          "parameterCode": "256",
          "parameterDescription": "Count of total number of Redeye Bass (Micropterus coosae) observed in a two hour period  ",
          "parameterTimestep": "every two hours",
          "parameterTransformation": "sum",
          "parameterUnit": "count",
          "createDate": "2021-08-26T21:45:40+00:00",
          "updateDate": "2021-11-30T16:00:24+00:00",
          "parameterGroup": "Macrobiological Characteristics"
        },
        "relationships": {
          "parameterGroupEntity": {
            "data": {
              "type": "ParameterGroup",
              "id": "/rise/api/parameter-group/31"
            }
          }
        }
      },
      {
        "id": "/rise/api/parameter/1636",
        "type": "Parameter",
        "attributes": {
          "_id": 1636,
          "parameterGroupId": 31,
          "parameterName": "Butter Sole Count",
          "parameterCode": "255",
          "parameterDescription": "Count of total number of Butter Sole (Isopsetta) observed in a two hour period  ",
          "parameterTimestep": "every two hours",
          "parameterTransformation": "sum",
          "parameterUnit": "count",
          "createDate": "2021-08-26T21:43:53+00:00",
          "updateDate": "2021-11-30T15:57:24+00:00",
          "parameterGroup": "Macrobiological Characteristics"
        },
        "relationships": {
          "parameterGroupEntity": {
            "data": {
              "type": "ParameterGroup",
              "id": "/rise/api/parameter-group/31"
            }
          }
        }
      }
    ]
  }